How to Make a Thousand Plots Look Good: Data Viz Tips for Parameterized Reporting
…
race_ethnicity

# A tibble: 288 × 4
   county population                            pct pct_formatted
   <chr>  <fct>                               <dbl> <chr>        
 1 Baker  American Indian/Alaska Native    0.0142   1.4%         
 2 Baker  Asian                            0.00351  0.4%         
 3 Baker  Black/African American           0.0113   1.1%         
 4 Baker  Hispanic/Latino                  0.0481   4.8%         
 5 Baker  Native Hawaiian/Pacific Islander 0.00193  0.2%         
 6 Baker  Some other race                  0.000544 0.1%         
 7 Baker  Two or more races                0.0244   2.4%         
 8 Baker  White                            0.896    89.6%        
 9 Benton American Indian/Alaska Native    0.00418  0.4%         
10 Benton Asian                            0.0729   7.3%         
# ℹ 278 more rows
…
Set limits of plot based on max of all data

median_income

# A tibble: 37 × 4
   geography  year amount amount_formatted
   <chr>     <dbl>  <dbl> <chr>           
 1 Oregon     2024  76632 $76,632         
 2 Baker      2024  51657 $51,657         
 3 Benton     2024  72882 $72,882         
 4 Clackamas  2024  95740 $95,740         
 5 Clatsop    2024  68025 $68,025         
 6 Columbia   2024  83265 $83,265         
 7 Coos       2024  57563 $57,563         
 8 Crook      2024  74969 $74,969         
 9 Curry      2024  64300 $64,300         
10 Deschutes  2024  82042 $82,042         
# ℹ 27 more rows
…
housing_cost_burden 

# A tibble: 694 × 4
   location   burden_level       pct pct_formatted
   <fct>      <fct>            <dbl> <chr>        
 1 Bethel     Not burdened    0.381  38%          
 2 Bethel     Moderate burden 0.352  35%          
 3 Bethel     Severe burden   0.229  23%          
 4 Bethel     Not computed    0.0385 4%           
 5 Bridgeport Not burdened    0.358  36%          
 6 Bridgeport Moderate burden 0.260  26%          
 7 Bridgeport Severe burden   0.332  33%          
 8 Bridgeport Not computed    0.0494 5%           
 9 Brookfield Not burdened    0.501  50%          
10 Brookfield Moderate burden 0.228  23%          
# ℹ 684 more rows
…
single_family_homes

# A tibble: 169 × 2
   location       pct
   <fct>        <dbl>
 1 Andover      0.897
 2 Ansonia      0.548
 3 Ashford      0.850
 4 Avon         0.844
 5 Barkhamsted  0.956
 6 Beacon Falls 0.717
 7 Berlin       0.807
 8 Bethany      0.958
 9 Bethel       0.746
10 Bethlehem    0.944
# ℹ 159 more rows
…
